{
  "annotations": {
    "list": []
  },
  "editable": true,
  "hideControls": false,
  "links": [],
  "originalTitle": "haproxy Copy",
  "refresh": "1m",
  "rows": [
    {
      "collapse": false,
      "editable": true,
      "height": "700px",
      "panels": [
        {
          "aliasColors": {},
          "bars": false,
          "datasource": "dcos2 haproxy",
          "editable": true,
          "error": false,
          "fill": 1,
          "grid": {
            "leftLogBase": 1,
            "leftMax": null,
            "leftMin": 0,
            "rightLogBase": 1,
            "rightMax": null,
            "rightMin": null,
            "threshold1": null,
            "threshold1Color": "rgba(216, 200, 27, 0.27)",
            "threshold2": null,
            "threshold2Color": "rgba(234, 112, 112, 0.22)"
          },
          "id": 5,
          "interval": ">10s",
          "isNew": true,
          "legend": {
            "alignAsTable": true,
            "avg": true,
            "current": true,
            "hideEmpty": true,
            "hideZero": true,
            "max": true,
            "min": true,
            "rightSide": true,
            "show": true,
            "sortDesc": false,
            "total": false,
            "values": true
          },
          "lines": true,
          "linewidth": 1,
          "links": [],
          "nullPointMode": "connected",
          "percentage": false,
          "pointradius": 1,
          "points": false,
          "renderer": "flot",
          "seriesOverrides": [
            {
              "alias": "tgs_oz_prod_catcher_10010 (FRONTEND)",
              "color": "#BF1B00",
              "stack": "A"
            },
            {
              "alias": "tgs_oz_prod_catcher_10010 (BACKEND)",
              "color": "#629E51",
              "stack": "B"
            },
            {
              "alias": "nexon_catcher_10000 (FRONTEND)",
              "stack": "C"
            },
            {
              "alias": "nexon_catcher_10000 (BACKEND)",
              "stack": "D"
            }
          ],
          "span": 12,
          "stack": true,
          "steppedLine": true,
          "targets": [
            {
              "alias": "$tag_proxy ($tag_sv)",
              "dsType": "influxdb",
              "groupBy": [
                {
                  "params": [
                    "auto"
                  ],
                  "type": "time"
                },
                {
                  "params": [
                    "sv"
                  ],
                  "type": "tag"
                },
                {
                  "params": [
                    "proxy"
                  ],
                  "type": "tag"
                },
                {
                  "params": [
                    "server"
                  ],
                  "type": "tag"
                },
                {
                  "params": [
                    "none"
                  ],
                  "type": "fill"
                }
              ],
              "hide": false,
              "measurement": "marathonlb_stats",
              "query": "SELECT median(\"scur\") FROM \"marathonlb_stats\" WHERE \"proxy\" = 'shared_rest-catcher_10011' OR \"proxy\" = 'nexon_catcher_10000' OR \"proxy\" = 'nexon_catcher_10070' AND $timeFilter GROUP BY time($interval), \"sv\", \"proxy\", \"server\" fill(none)",
              "rawQuery": false,
              "refId": "A",
              "resultFormat": "time_series",
              "select": [
                [
                  {
                    "params": [
                      "scur"
                    ],
                    "type": "field"
                  },
                  {
                    "params": [],
                    "type": "median"
                  }
                ]
              ],
              "tags": [
                {
                  "key": "proxy",
                  "operator": "=",
                  "value": "shared_rest-catcher_10011"
                },
                {
                  "condition": "OR",
                  "key": "proxy",
                  "operator": "=",
                  "value": "nexon_catcher_10000"
                },
                {
                  "condition": "OR",
                  "key": "proxy",
                  "operator": "=",
                  "value": "nexon_catcher_10070"
                }
              ]
            }
          ],
          "timeFrom": null,
          "timeShift": null,
          "title": "Sessions",
          "tooltip": {
            "shared": true,
            "value_type": "cumulative"
          },
          "type": "graph",
          "x-axis": true,
          "y-axis": true,
          "y_formats": [
            "short",
            "short"
          ]
        }
      ],
      "title": "New row"
    },
    {
      "collapse": false,
      "editable": true,
      "height": "350px",
      "panels": [
        {
          "aliasColors": {},
          "bars": false,
          "datasource": "dcos2 haproxy",
          "editable": true,
          "error": false,
          "fill": 1,
          "grid": {
            "leftLogBase": 1,
            "leftMax": null,
            "leftMin": null,
            "rightLogBase": 1,
            "rightMax": null,
            "rightMin": null,
            "threshold1": null,
            "threshold1Color": "rgba(216, 200, 27, 0.27)",
            "threshold2": null,
            "threshold2Color": "rgba(234, 112, 112, 0.22)"
          },
          "id": 6,
          "isNew": true,
          "legend": {
            "alignAsTable": true,
            "avg": true,
            "current": true,
            "hideEmpty": true,
            "hideZero": true,
            "max": true,
            "min": true,
            "rightSide": true,
            "show": true,
            "total": true,
            "values": true
          },
          "lines": false,
          "linewidth": 2,
          "links": [],
          "minSpan": 6,
          "nullPointMode": "connected",
          "percentage": false,
          "pointradius": 1,
          "points": true,
          "renderer": "flot",
          "seriesOverrides": [],
          "span": 12,
          "stack": false,
          "steppedLine": false,
          "targets": [
            {
              "alias": "$tag_server/$tag_proxy",
              "dsType": "influxdb",
              "groupBy": [
                {
                  "params": [
                    "1s"
                  ],
                  "type": "time"
                },
                {
                  "params": [
                    "proxy"
                  ],
                  "type": "tag"
                },
                {
                  "params": [
                    "server"
                  ],
                  "type": "tag"
                },
                {
                  "params": [
                    "none"
                  ],
                  "type": "fill"
                }
              ],
              "measurement": "marathonlb_stats",
              "query": "SELECT mean(\"rate\") FROM \"marathonlb_stats\" WHERE \"sv\" = 'FRONTEND' AND $timeFilter GROUP BY time(1s), \"proxy\", \"server\" fill(none)",
              "refId": "G",
              "resultFormat": "time_series",
              "select": [
                [
                  {
                    "params": [
                      "rate"
                    ],
                    "type": "field"
                  },
                  {
                    "params": [],
                    "type": "mean"
                  }
                ]
              ],
              "tags": [
                {
                  "key": "sv",
                  "operator": "=",
                  "value": "FRONTEND"
                }
              ]
            }
          ],
          "timeFrom": null,
          "timeShift": null,
          "title": "Session rate",
          "tooltip": {
            "shared": true,
            "value_type": "cumulative"
          },
          "type": "graph",
          "x-axis": true,
          "y-axis": true,
          "y_formats": [
            "short",
            "short"
          ]
        }
      ],
      "title": "New row"
    },
    {
      "collapse": false,
      "editable": true,
      "height": "300px",
      "panels": [
        {
          "aliasColors": {},
          "bars": false,
          "datasource": "haproxy",
          "editable": true,
          "error": false,
          "fill": 1,
          "grid": {
            "leftLogBase": 1,
            "leftMax": null,
            "leftMin": null,
            "rightLogBase": 1,
            "rightMax": null,
            "rightMin": null,
            "threshold1": null,
            "threshold1Color": "rgba(216, 200, 27, 0.27)",
            "threshold2": null,
            "threshold2Color": "rgba(234, 112, 112, 0.22)"
          },
          "id": 1,
          "isNew": true,
          "legend": {
            "alignAsTable": true,
            "avg": true,
            "current": true,
            "max": true,
            "min": true,
            "rightSide": true,
            "show": true,
            "sort": null,
            "sortDesc": null,
            "total": false,
            "values": true
          },
          "lines": false,
          "linewidth": 1,
          "links": [],
          "nullPointMode": "connected",
          "percentage": false,
          "pointradius": 1,
          "points": true,
          "renderer": "flot",
          "seriesOverrides": [],
          "span": 12,
          "stack": false,
          "steppedLine": false,
          "targets": [
            {
              "alias": "$tag_proxy ($tag_sv)",
              "dsType": "influxdb",
              "groupBy": [
                {
                  "params": [
                    "$interval"
                  ],
                  "type": "time"
                },
                {
                  "params": [
                    "sv"
                  ],
                  "type": "tag"
                },
                {
                  "params": [
                    "proxy"
                  ],
                  "type": "tag"
                },
                {
                  "params": [
                    "none"
                  ],
                  "type": "fill"
                }
              ],
              "measurement": "marathonlb_stats",
              "query": "SELECT mean(\"check_duration\") FROM \"marathonlb_stats\" WHERE $timeFilter GROUP BY time($interval), \"sv\", \"proxy\" fill(none)",
              "refId": "A",
              "resultFormat": "time_series",
              "select": [
                [
                  {
                    "params": [
                      "check_duration"
                    ],
                    "type": "field"
                  },
                  {
                    "params": [],
                    "type": "mean"
                  }
                ]
              ],
              "tags": []
            }
          ],
          "timeFrom": null,
          "timeShift": null,
          "title": "Backend delays",
          "tooltip": {
            "shared": true,
            "value_type": "cumulative"
          },
          "type": "graph",
          "x-axis": true,
          "y-axis": true,
          "y_formats": [
            "s",
            "short"
          ]
        }
      ],
      "title": "Row"
    },
    {
      "collapse": false,
      "editable": true,
      "height": "300px",
      "panels": [
        {
          "aliasColors": {},
          "bars": false,
          "datasource": "haproxy",
          "editable": true,
          "error": false,
          "fill": 1,
          "grid": {
            "leftLogBase": 1,
            "leftMax": null,
            "leftMin": null,
            "rightLogBase": 1,
            "rightMax": null,
            "rightMin": null,
            "threshold1": null,
            "threshold1Color": "rgba(216, 200, 27, 0.27)",
            "threshold2": null,
            "threshold2Color": "rgba(234, 112, 112, 0.22)"
          },
          "id": 2,
          "isNew": true,
          "legend": {
            "alignAsTable": true,
            "avg": true,
            "current": true,
            "max": true,
            "min": true,
            "rightSide": true,
            "show": true,
            "sortDesc": true,
            "total": false,
            "values": true
          },
          "lines": false,
          "linewidth": 1,
          "links": [],
          "nullPointMode": "null as zero",
          "percentage": false,
          "pointradius": 1,
          "points": true,
          "renderer": "flot",
          "seriesOverrides": [],
          "span": 12,
          "stack": false,
          "steppedLine": false,
          "targets": [
            {
              "alias": "$tag_proxy ($tag_sv)",
              "dsType": "influxdb",
              "groupBy": [
                {
                  "params": [
                    "$interval"
                  ],
                  "type": "time"
                },
                {
                  "params": [
                    "sv"
                  ],
                  "type": "tag"
                },
                {
                  "params": [
                    "proxy"
                  ],
                  "type": "tag"
                },
                {
                  "params": [
                    "none"
                  ],
                  "type": "fill"
                }
              ],
              "measurement": "marathonlb_stats",
              "query": "SELECT mean(\"ctime\") FROM \"marathonlb_stats\" WHERE \"proxy\" = 'tgs_oz_prod_catcher_10010' OR \"proxy\" = 'nexon_catcher_10000' AND $timeFilter GROUP BY time($interval), \"sv\", \"proxy\" fill(none)",
              "refId": "A",
              "resultFormat": "time_series",
              "select": [
                [
                  {
                    "params": [
                      "ctime"
                    ],
                    "type": "field"
                  },
                  {
                    "params": [],
                    "type": "mean"
                  }
                ]
              ],
              "tags": [
                {
                  "key": "proxy",
                  "operator": "=",
                  "value": "tgs_oz_prod_catcher_10010"
                },
                {
                  "condition": "OR",
                  "key": "proxy",
                  "operator": "=",
                  "value": "nexon_catcher_10000"
                }
              ]
            }
          ],
          "timeFrom": null,
          "timeShift": null,
          "title": "Exec time (mean)",
          "tooltip": {
            "shared": true,
            "value_type": "cumulative"
          },
          "type": "graph",
          "x-axis": true,
          "y-axis": true,
          "y_formats": [
            "s",
            "short"
          ]
        }
      ],
      "title": "New row"
    }
  ],
  "schemaVersion": 8,
  "sharedCrosshair": true,
  "style": "dark",
  "tags": [],
  "templating": {
    "list": []
  },
  "time": {
    "from": "now-30m",
    "to": "now"
  },
  "timepicker": {
    "now": true,
    "refresh_intervals": [
      "5s",
      "10s",
      "30s",
      "1m",
      "5m",
      "15m",
      "30m",
      "1h",
      "2h",
      "1d"
    ],
    "time_options": [
      "5m",
      "15m",
      "1h",
      "6h",
      "12h",
      "24h",
      "2d",
      "7d",
      "30d"
    ]
  },
  "timezone": "browser",
  "title": "dcos2 haproxy"
}