{
  "annotations": {
    "list": []
  },
  "editable": true,
  "hideControls": false,
  "links": [],
  "originalTitle": "Dom ETL Delays",
  "refresh": "5m",
  "rows": [
    {
      "collapse": false,
      "editable": true,
      "height": "450px",
      "panels": [
        {
          "aliasColors": {},
          "bars": false,
          "datasource": "ETL Delays",
          "editable": true,
          "error": false,
          "fill": 1,
          "grid": {
            "leftLogBase": 1,
            "leftMax": null,
            "leftMin": null,
            "rightLogBase": 1,
            "rightMax": null,
            "rightMin": null,
            "threshold1": 1800,
            "threshold1Color": "rgba(216, 200, 27, 0.27)",
            "threshold2": 3600,
            "threshold2Color": "rgba(234, 112, 112, 0.22)",
            "thresholdLine": false
          },
          "id": 1,
          "isNew": true,
          "legend": {
            "alignAsTable": false,
            "avg": true,
            "current": true,
            "max": true,
            "min": true,
            "show": true,
            "total": false,
            "values": true
          },
          "lines": false,
          "linewidth": 2,
          "links": [],
          "nullPointMode": "connected",
          "percentage": false,
          "pointradius": 1,
          "points": true,
          "renderer": "flot",
          "seriesOverrides": [],
          "span": 12,
          "stack": false,
          "steppedLine": false,
          "targets": [
            {
              "alias": "",
              "dsType": "influxdb",
              "groupBy": [
                {
                  "params": [
                    "$interval"
                  ],
                  "type": "time"
                },
                {
                  "params": [
                    "table"
                  ],
                  "type": "tag"
                },
                {
                  "params": [
                    "null"
                  ],
                  "type": "fill"
                }
              ],
              "measurement": "etl_delays",
              "query": "SELECT max(\"max_delay_s\") FROM \"etl_delays\" WHERE \"app_id\" = 'dominations' AND $timeFilter GROUP BY time($interval), \"table\" fill(null)",
              "refId": "A",
              "resultFormat": "time_series",
              "select": [
                [
                  {
                    "params": [
                      "max_delay_s"
                    ],
                    "type": "field"
                  },
                  {
                    "params": [],
                    "type": "max"
                  }
                ]
              ],
              "tags": [
                {
                  "key": "app_id",
                  "operator": "=",
                  "value": "dominations"
                }
              ]
            }
          ],
          "timeFrom": null,
          "timeShift": null,
          "title": "Maximum delay by event",
          "tooltip": {
            "shared": true,
            "value_type": "cumulative"
          },
          "type": "graph",
          "x-axis": true,
          "y-axis": true,
          "y_formats": [
            "s",
            "short"
          ]
        }
      ],
      "title": "Row"
    },
    {
      "collapse": false,
      "editable": true,
      "height": "450px",
      "panels": [
        {
          "aliasColors": {},
          "bars": false,
          "datasource": "ETL Delays",
          "editable": true,
          "error": false,
          "fill": 1,
          "grid": {
            "leftLogBase": 1,
            "leftMax": null,
            "leftMin": null,
            "rightLogBase": 1,
            "rightMax": null,
            "rightMin": null,
            "threshold1": 1800,
            "threshold1Color": "rgba(216, 200, 27, 0.27)",
            "threshold2": 3600,
            "threshold2Color": "rgba(234, 112, 112, 0.22)"
          },
          "id": 2,
          "isNew": true,
          "legend": {
            "avg": true,
            "current": true,
            "max": true,
            "min": true,
            "show": true,
            "total": false,
            "values": true
          },
          "lines": false,
          "linewidth": 2,
          "links": [],
          "nullPointMode": "connected",
          "percentage": false,
          "pointradius": 1,
          "points": true,
          "renderer": "flot",
          "seriesOverrides": [],
          "span": 12,
          "stack": false,
          "steppedLine": false,
          "targets": [
            {
              "dsType": "influxdb",
              "groupBy": [
                {
                  "params": [
                    "$interval"
                  ],
                  "type": "time"
                },
                {
                  "params": [
                    "table"
                  ],
                  "type": "tag"
                },
                {
                  "params": [
                    "null"
                  ],
                  "type": "fill"
                }
              ],
              "measurement": "etl_delays",
              "query": "SELECT median(\"median_delay_s\") FROM \"etl_delays\" WHERE \"app_id\" = 'dominations' AND $timeFilter GROUP BY time($interval), \"table\" fill(null)",
              "refId": "A",
              "resultFormat": "time_series",
              "select": [
                [
                  {
                    "params": [
                      "median_delay_s"
                    ],
                    "type": "field"
                  },
                  {
                    "params": [],
                    "type": "median"
                  }
                ]
              ],
              "tags": [
                {
                  "key": "app_id",
                  "operator": "=",
                  "value": "dominations"
                }
              ]
            }
          ],
          "timeFrom": null,
          "timeShift": null,
          "title": "Median delay by event",
          "tooltip": {
            "shared": true,
            "value_type": "cumulative"
          },
          "type": "graph",
          "x-axis": true,
          "y-axis": true,
          "y_formats": [
            "s",
            "short"
          ]
        }
      ],
      "title": "New row"
    },
    {
      "collapse": false,
      "editable": true,
      "height": "250px",
      "panels": [
        {
          "aliasColors": {},
          "bars": false,
          "datasource": "ETL Delays",
          "editable": true,
          "error": false,
          "fill": 1,
          "grid": {
            "leftLogBase": 1,
            "leftMax": 3600,
            "leftMin": null,
            "rightLogBase": 1,
            "rightMax": null,
            "rightMin": null,
            "threshold1": 900,
            "threshold1Color": "rgba(216, 200, 27, 0.27)",
            "threshold2": null,
            "threshold2Color": "rgba(234, 112, 112, 0.22)"
          },
          "id": 4,
          "interval": ">1h",
          "isNew": true,
          "legend": {
            "avg": true,
            "current": true,
            "max": true,
            "min": true,
            "show": true,
            "total": false,
            "values": true
          },
          "lines": false,
          "linewidth": 2,
          "links": [],
          "nullPointMode": "connected",
          "percentage": false,
          "pointradius": 1,
          "points": true,
          "renderer": "flot",
          "seriesOverrides": [],
          "span": 12,
          "stack": false,
          "steppedLine": false,
          "targets": [
            {
              "dsType": "influxdb",
              "groupBy": [
                {
                  "params": [
                    "$interval"
                  ],
                  "type": "time"
                },
                {
                  "params": [
                    "table"
                  ],
                  "type": "tag"
                },
                {
                  "params": [
                    "null"
                  ],
                  "type": "fill"
                }
              ],
              "measurement": "etl_delays",
              "query": "SELECT min(\"min_delay_s\") FROM \"etl_delays\" WHERE \"app_id\" = 'dominations' AND $timeFilter GROUP BY time($interval), \"table\" fill(null)",
              "refId": "A",
              "resultFormat": "time_series",
              "select": [
                [
                  {
                    "params": [
                      "min_delay_s"
                    ],
                    "type": "field"
                  },
                  {
                    "params": [],
                    "type": "min"
                  }
                ]
              ],
              "tags": [
                {
                  "key": "app_id",
                  "operator": "=",
                  "value": "dominations"
                }
              ]
            }
          ],
          "timeFrom": null,
          "timeShift": null,
          "title": "Minimum delay by event",
          "tooltip": {
            "shared": true,
            "value_type": "cumulative"
          },
          "type": "graph",
          "x-axis": true,
          "y-axis": true,
          "y_formats": [
            "s",
            "short"
          ]
        }
      ],
      "title": "New row"
    },
    {
      "collapse": false,
      "editable": true,
      "height": "250px",
      "panels": [
        {
          "aliasColors": {},
          "bars": false,
          "datasource": "ETL Delays",
          "editable": true,
          "error": false,
          "fill": 1,
          "grid": {
            "leftLogBase": 1,
            "leftMax": null,
            "leftMin": null,
            "rightLogBase": 1,
            "rightMax": null,
            "rightMin": null,
            "threshold1": null,
            "threshold1Color": "rgba(216, 200, 27, 0.27)",
            "threshold2": null,
            "threshold2Color": "rgba(234, 112, 112, 0.22)"
          },
          "id": 3,
          "interval": "> 1m",
          "isNew": true,
          "legend": {
            "avg": true,
            "current": true,
            "max": true,
            "min": true,
            "show": true,
            "total": false,
            "values": true
          },
          "lines": true,
          "linewidth": 1,
          "links": [],
          "nullPointMode": "connected",
          "percentage": false,
          "pointradius": 5,
          "points": false,
          "renderer": "flot",
          "seriesOverrides": [],
          "span": 12,
          "stack": false,
          "steppedLine": false,
          "targets": [
            {
              "dsType": "influxdb",
              "groupBy": [
                {
                  "params": [
                    "$interval"
                  ],
                  "type": "time"
                },
                {
                  "params": [
                    "table"
                  ],
                  "type": "tag"
                },
                {
                  "params": [
                    "0"
                  ],
                  "type": "fill"
                }
              ],
              "measurement": "etl_delays",
              "query": "SELECT mean(\"count\") FROM \"etl_delays\" WHERE \"app_id\" = 'dominations' AND $timeFilter GROUP BY time($interval), \"table\" fill(0)",
              "refId": "A",
              "resultFormat": "time_series",
              "select": [
                [
                  {
                    "params": [
                      "count"
                    ],
                    "type": "field"
                  },
                  {
                    "params": [],
                    "type": "mean"
                  }
                ]
              ],
              "tags": [
                {
                  "key": "app_id",
                  "operator": "=",
                  "value": "dominations"
                }
              ]
            }
          ],
          "timeFrom": null,
          "timeShift": null,
          "title": "Events loaded per minute",
          "tooltip": {
            "shared": true,
            "value_type": "cumulative"
          },
          "type": "graph",
          "x-axis": true,
          "y-axis": true,
          "y_formats": [
            "short",
            "short"
          ]
        }
      ],
      "title": "New row"
    }
  ],
  "schemaVersion": 8,
  "sharedCrosshair": true,
  "style": "dark",
  "tags": [],
  "templating": {
    "list": []
  },
  "time": {
    "from": "now-4d",
    "to": "now"
  },
  "timepicker": {
    "now": true,
    "refresh_intervals": [
      "5s",
      "10s",
      "30s",
      "1m",
      "5m",
      "15m",
      "30m",
      "1h",
      "2h",
      "1d"
    ],
    "time_options": [
      "5m",
      "15m",
      "1h",
      "6h",
      "12h",
      "24h",
      "2d",
      "7d",
      "30d"
    ]
  },
  "timezone": "browser",
  "title": "Dom ETL Delays"
}