{
  "annotations": {
    "list": []
  },
  "editable": true,
  "hideControls": false,
  "links": [],
  "originalTitle": "Map Console",
  "rows": [
    {
      "collapse": false,
      "editable": true,
      "height": "250px",
      "panels": [
        {
          "aliasColors": {},
          "bars": false,
          "datasource": "ETL",
          "editable": true,
          "error": false,
          "fill": 1,
          "grid": {
            "leftLogBase": 1,
            "leftMax": null,
            "leftMin": 0,
            "rightLogBase": 1,
            "rightMax": null,
            "rightMin": null,
            "threshold1": null,
            "threshold1Color": "rgba(216, 200, 27, 0.27)",
            "threshold2": null,
            "threshold2Color": "rgba(234, 112, 112, 0.22)"
          },
          "id": 3,
          "interval": "$interval",
          "isNew": true,
          "legend": {
            "avg": false,
            "current": false,
            "hideEmpty": true,
            "hideZero": true,
            "max": false,
            "min": false,
            "show": true,
            "total": false,
            "values": false
          },
          "lines": true,
          "linewidth": 2,
          "links": [],
          "nullPointMode": "connected",
          "percentage": false,
          "pointradius": 5,
          "points": false,
          "renderer": "flot",
          "rightYAxisLabel": "",
          "seriesOverrides": [],
          "span": 12,
          "stack": false,
          "steppedLine": false,
          "targets": [
            {
              "alias": "$tag_module:$tag_method",
              "dsType": "influxdb",
              "groupBy": [
                {
                  "params": [
                    "$interval"
                  ],
                  "type": "time"
                },
                {
                  "params": [
                    "null"
                  ],
                  "type": "fill"
                }
              ],
              "query": "SELECT count(\"execution_time\") FROM \"performance\" WHERE \"module\" =~ /com\\.nexonm\\.map.admin\\.service.($service)_service/ AND \"method\" =~ /$method/ AND $timeFilter GROUP BY time($interval), \"module\", \"method\" fill(null)",
              "rawQuery": true,
              "refId": "A",
              "resultFormat": "time_series",
              "select": [
                [
                  {
                    "params": [
                      "value"
                    ],
                    "type": "field"
                  },
                  {
                    "params": [],
                    "type": "count"
                  }
                ]
              ],
              "tags": []
            }
          ],
          "timeFrom": null,
          "timeShift": null,
          "title": "Requests Per $interval",
          "tooltip": {
            "shared": true,
            "value_type": "cumulative"
          },
          "type": "graph",
          "x-axis": true,
          "y-axis": true,
          "y_formats": [
            "short",
            "short"
          ]
        },
        {
          "aliasColors": {},
          "bars": false,
          "datasource": "ETL",
          "editable": true,
          "error": false,
          "fill": 1,
          "grid": {
            "leftLogBase": 1,
            "leftMax": null,
            "leftMin": 0,
            "rightLogBase": 1,
            "rightMax": null,
            "rightMin": null,
            "threshold1": null,
            "threshold1Color": "rgba(216, 200, 27, 0.27)",
            "threshold2": null,
            "threshold2Color": "rgba(234, 112, 112, 0.22)"
          },
          "id": 2,
          "interval": "$interval",
          "isNew": true,
          "legend": {
            "avg": false,
            "current": false,
            "hideEmpty": true,
            "hideZero": true,
            "max": false,
            "min": false,
            "show": true,
            "total": false,
            "values": false
          },
          "lines": true,
          "linewidth": 2,
          "links": [],
          "nullPointMode": "connected",
          "percentage": false,
          "pointradius": 5,
          "points": false,
          "renderer": "flot",
          "seriesOverrides": [],
          "span": 12,
          "stack": false,
          "steppedLine": false,
          "targets": [
            {
              "alias": "$tag_module:$tag_method",
              "dsType": "influxdb",
              "groupBy": [
                {
                  "params": [
                    "$interval"
                  ],
                  "type": "time"
                },
                {
                  "params": [
                    "null"
                  ],
                  "type": "fill"
                }
              ],
              "query": "SELECT mean(\"execution_time\") FROM \"performance\" WHERE \"module\" =~ /com\\.nexonm\\.map.admin\\.service.($service)_service/ AND \"method\" =~ /$method/ AND $timeFilter GROUP BY time($interval), \"module\", \"method\" fill(null)",
              "rawQuery": true,
              "refId": "A",
              "resultFormat": "time_series",
              "select": [
                [
                  {
                    "params": [
                      "value"
                    ],
                    "type": "field"
                  },
                  {
                    "params": [],
                    "type": "mean"
                  }
                ]
              ],
              "tags": []
            }
          ],
          "timeFrom": null,
          "timeShift": null,
          "title": "Mean Latency",
          "tooltip": {
            "shared": true,
            "value_type": "cumulative"
          },
          "type": "graph",
          "x-axis": true,
          "y-axis": true,
          "y_formats": [
            "s",
            "short"
          ]
        },
        {
          "aliasColors": {},
          "bars": false,
          "datasource": "ETL",
          "editable": true,
          "error": false,
          "fill": 1,
          "grid": {
            "leftLogBase": 1,
            "leftMax": null,
            "leftMin": 0,
            "rightLogBase": 1,
            "rightMax": null,
            "rightMin": null,
            "threshold1": null,
            "threshold1Color": "rgba(216, 200, 27, 0.27)",
            "threshold2": null,
            "threshold2Color": "rgba(234, 112, 112, 0.22)"
          },
          "id": 1,
          "interval": "$interval",
          "isNew": true,
          "legend": {
            "avg": false,
            "current": false,
            "hideEmpty": true,
            "hideZero": true,
            "max": false,
            "min": false,
            "show": true,
            "total": false,
            "values": false
          },
          "lines": true,
          "linewidth": 2,
          "links": [],
          "nullPointMode": "connected",
          "percentage": false,
          "pointradius": 5,
          "points": false,
          "renderer": "flot",
          "seriesOverrides": [],
          "span": 12,
          "stack": false,
          "steppedLine": false,
          "targets": [
            {
              "alias": "$tag_module:$tag_method",
              "dsType": "influxdb",
              "groupBy": [
                {
                  "params": [
                    "$interval"
                  ],
                  "type": "time"
                },
                {
                  "params": [
                    "null"
                  ],
                  "type": "fill"
                }
              ],
              "query": "SELECT max(\"execution_time\") FROM \"performance\" WHERE \"module\" =~ /com\\.nexonm\\.map.admin\\.service.($service)_service/ AND \"method\" =~ /$method/ AND $timeFilter GROUP BY time($interval), \"module\", \"method\" fill(null)",
              "rawQuery": true,
              "refId": "A",
              "resultFormat": "time_series",
              "select": [
                [
                  {
                    "params": [
                      "value"
                    ],
                    "type": "field"
                  },
                  {
                    "params": [],
                    "type": "mean"
                  }
                ]
              ],
              "tags": []
            }
          ],
          "timeFrom": null,
          "timeShift": null,
          "title": "Max Latency",
          "tooltip": {
            "shared": true,
            "value_type": "cumulative"
          },
          "type": "graph",
          "x-axis": true,
          "y-axis": true,
          "y_formats": [
            "s",
            "short"
          ]
        }
      ],
      "title": "Row"
    }
  ],
  "schemaVersion": 8,
  "sharedCrosshair": false,
  "style": "dark",
  "tags": [],
  "templating": {
    "list": [
      {
        "allFormat": "regex wildcard",
        "current": {
          "text": "All",
          "value": ".*"
        },
        "datasource": "ETL",
        "includeAll": true,
        "multi": true,
        "multiFormat": "regex values",
        "name": "service",
        "options": [
          {
            "selected": true,
            "text": "All",
            "value": ".*"
          },
          {
            "selected": false,
            "text": "admin",
            "value": "admin"
          },
          {
            "selected": false,
            "text": "blacklist",
            "value": "blacklist"
          },
          {
            "selected": false,
            "text": "config",
            "value": "config"
          },
          {
            "selected": false,
            "text": "data_warehouse",
            "value": "data_warehouse"
          },
          {
            "selected": false,
            "text": "dimension",
            "value": "dimension"
          },
          {
            "selected": false,
            "text": "etl",
            "value": "etl"
          },
          {
            "selected": false,
            "text": "event",
            "value": "event"
          },
          {
            "selected": false,
            "text": "funnel",
            "value": "funnel"
          },
          {
            "selected": false,
            "text": "game",
            "value": "game"
          },
          {
            "selected": false,
            "text": "game_request",
            "value": "game_request"
          },
          {
            "selected": false,
            "text": "qsm",
            "value": "qsm"
          },
          {
            "selected": false,
            "text": "report",
            "value": "report"
          },
          {
            "selected": false,
            "text": "sdk_version",
            "value": "sdk_version"
          },
          {
            "selected": false,
            "text": "task",
            "value": "task"
          },
          {
            "selected": false,
            "text": "toy",
            "value": "toy"
          },
          {
            "selected": false,
            "text": "universal_config",
            "value": "universal_config"
          },
          {
            "selected": false,
            "text": "user",
            "value": "user"
          }
        ],
        "query": "SHOW TAG VALUES WITH KEY = \"module\"",
        "refresh": true,
        "regex": "/com\\.nexonm\\.map.admin\\.service.(.*)_service/",
        "type": "query"
      },
      {
        "allFormat": "regex wildcard",
        "current": {
          "text": "All",
          "value": ".*"
        },
        "datasource": "ETL",
        "includeAll": true,
        "multi": true,
        "multiFormat": "regex values",
        "name": "method",
        "options": [
          {
            "selected": true,
            "text": "All",
            "value": ".*"
          },
          {
            "selected": false,
            "text": "_check_for_duplicate_column_names_in_fields_update",
            "value": "_check_for_duplicate_column_names_in_fields_update"
          },
          {
            "selected": false,
            "text": "_check_for_duplicate_event_names",
            "value": "_check_for_duplicate_event_names"
          },
          {
            "selected": false,
            "text": "_check_for_duplicate_field_names_in_config",
            "value": "_check_for_duplicate_field_names_in_config"
          },
          {
            "selected": false,
            "text": "_check_for_duplicate_names",
            "value": "_check_for_duplicate_names"
          },
          {
            "selected": false,
            "text": "_check_for_duplicate_shortnames_in_fields_update",
            "value": "_check_for_duplicate_shortnames_in_fields_update"
          },
          {
            "selected": false,
            "text": "_check_for_invalid_data_conversions",
            "value": "_check_for_invalid_data_conversions"
          },
          {
            "selected": false,
            "text": "_check_for_invalid_shortname_to_column_name_mappings",
            "value": "_check_for_invalid_shortname_to_column_name_mappings"
          },
          {
            "selected": false,
            "text": "_check_for_taken_names",
            "value": "_check_for_taken_names"
          },
          {
            "selected": false,
            "text": "_check_for_valid_field_restrictions",
            "value": "_check_for_valid_field_restrictions"
          },
          {
            "selected": false,
            "text": "_check_if_config_belongs_to_game",
            "value": "_check_if_config_belongs_to_game"
          },
          {
            "selected": false,
            "text": "_check_if_config_is_in_draft_state",
            "value": "_check_if_config_is_in_draft_state"
          },
          {
            "selected": false,
            "text": "_check_if_config_is_in_uploaded_state",
            "value": "_check_if_config_is_in_uploaded_state"
          },
          {
            "selected": false,
            "text": "_check_if_config_is_uploaded",
            "value": "_check_if_config_is_uploaded"
          },
          {
            "selected": false,
            "text": "_check_if_event_belongs_to_config",
            "value": "_check_if_event_belongs_to_config"
          },
          {
            "selected": false,
            "text": "_check_if_fields_belongs_to_event",
            "value": "_check_if_fields_belongs_to_event"
          },
          {
            "selected": false,
            "text": "_check_if_fields_update_will_cause_duplicates",
            "value": "_check_if_fields_update_will_cause_duplicates"
          },
          {
            "selected": false,
            "text": "_check_if_insert_will_cause_duplicate_fields",
            "value": "_check_if_insert_will_cause_duplicate_fields"
          },
          {
            "selected": false,
            "text": "_convert_field_restrictions_ranges",
            "value": "_convert_field_restrictions_ranges"
          },
          {
            "selected": false,
            "text": "_insert_event_will_cause_duplicates",
            "value": "_insert_event_will_cause_duplicates"
          },
          {
            "selected": false,
            "text": "_insert_into_etl_dimension",
            "value": "_insert_into_etl_dimension"
          },
          {
            "selected": false,
            "text": "_modify_standard_event_not_allowed",
            "value": "_modify_standard_event_not_allowed"
          },
          {
            "selected": false,
            "text": "_modify_standard_fields_not_allowed",
            "value": "_modify_standard_fields_not_allowed"
          },
          {
            "selected": false,
            "text": "add_loader_task_for_game",
            "value": "add_loader_task_for_game"
          },
          {
            "selected": false,
            "text": "add_player",
            "value": "add_player"
          },
          {
            "selected": false,
            "text": "add_sdk_version",
            "value": "add_sdk_version"
          },
          {
            "selected": false,
            "text": "add_service",
            "value": "add_service"
          },
          {
            "selected": false,
            "text": "blacklist_events",
            "value": "blacklist_events"
          },
          {
            "selected": false,
            "text": "clear_airflow_dag",
            "value": "clear_airflow_dag"
          },
          {
            "selected": false,
            "text": "convert_sql_return_to_dict",
            "value": "convert_sql_return_to_dict"
          },
          {
            "selected": false,
            "text": "create_dashboard",
            "value": "create_dashboard"
          },
          {
            "selected": false,
            "text": "create_job",
            "value": "create_job"
          },
          {
            "selected": false,
            "text": "create_json",
            "value": "create_json"
          },
          {
            "selected": false,
            "text": "create_sqs_queues",
            "value": "create_sqs_queues"
          },
          {
            "selected": false,
            "text": "create_suite",
            "value": "create_suite"
          },
          {
            "selected": false,
            "text": "create_task",
            "value": "create_task"
          },
          {
            "selected": false,
            "text": "create_user",
            "value": "create_user"
          },
          {
            "selected": false,
            "text": "create_user_grants",
            "value": "create_user_grants"
          },
          {
            "selected": false,
            "text": "delete_blacklist_events",
            "value": "delete_blacklist_events"
          },
          {
            "selected": false,
            "text": "delete_dashboard",
            "value": "delete_dashboard"
          },
          {
            "selected": false,
            "text": "delete_event",
            "value": "delete_event"
          },
          {
            "selected": false,
            "text": "delete_fields",
            "value": "delete_fields"
          },
          {
            "selected": false,
            "text": "delete_funnel",
            "value": "delete_funnel"
          },
          {
            "selected": false,
            "text": "delete_funnel_steps",
            "value": "delete_funnel_steps"
          },
          {
            "selected": false,
            "text": "delete_job",
            "value": "delete_job"
          },
          {
            "selected": false,
            "text": "delete_player",
            "value": "delete_player"
          },
          {
            "selected": false,
            "text": "delete_sdk_version",
            "value": "delete_sdk_version"
          },
          {
            "selected": false,
            "text": "delete_suite",
            "value": "delete_suite"
          },
          {
            "selected": false,
            "text": "delete_task",
            "value": "delete_task"
          },
          {
            "selected": false,
            "text": "delete_user",
            "value": "delete_user"
          },
          {
            "selected": false,
            "text": "delete_user_grants",
            "value": "delete_user_grants"
          },
          {
            "selected": false,
            "text": "disable_airflow_dag",
            "value": "disable_airflow_dag"
          },
          {
            "selected": false,
            "text": "edit_delete_blacklist_events",
            "value": "edit_delete_blacklist_events"
          },
          {
            "selected": false,
            "text": "edit_delete_player",
            "value": "edit_delete_player"
          },
          {
            "selected": false,
            "text": "edit_player",
            "value": "edit_player"
          },
          {
            "selected": false,
            "text": "email_admin_for_delete",
            "value": "email_admin_for_delete"
          },
          {
            "selected": false,
            "text": "enable_airflow_dag",
            "value": "enable_airflow_dag"
          },
          {
            "selected": false,
            "text": "enqueue_event_lookup",
            "value": "enqueue_event_lookup"
          },
          {
            "selected": false,
            "text": "filter",
            "value": "filter"
          },
          {
            "selected": false,
            "text": "generate_init_template_rds",
            "value": "generate_init_template_rds"
          },
          {
            "selected": false,
            "text": "generate_init_template_redshift",
            "value": "generate_init_template_redshift"
          },
          {
            "selected": false,
            "text": "generate_schema",
            "value": "generate_schema"
          },
          {
            "selected": false,
            "text": "get_additional_locked_columns",
            "value": "get_additional_locked_columns"
          },
          {
            "selected": false,
            "text": "get_admin_log",
            "value": "get_admin_log"
          },
          {
            "selected": false,
            "text": "get_blacklisted_events",
            "value": "get_blacklisted_events"
          },
          {
            "selected": false,
            "text": "get_config_json",
            "value": "get_config_json"
          },
          {
            "selected": false,
            "text": "get_dag_list",
            "value": "get_dag_list"
          },
          {
            "selected": false,
            "text": "get_dag_run_list",
            "value": "get_dag_run_list"
          },
          {
            "selected": false,
            "text": "get_dashboards",
            "value": "get_dashboards"
          },
          {
            "selected": false,
            "text": "get_data_warehouse_filtered_game_info",
            "value": "get_data_warehouse_filtered_game_info"
          },
          {
            "selected": false,
            "text": "get_device_info",
            "value": "get_device_info"
          },
          {
            "selected": false,
            "text": "get_dimension_tables",
            "value": "get_dimension_tables"
          },
          {
            "selected": false,
            "text": "get_events",
            "value": "get_events"
          },
          {
            "selected": false,
            "text": "get_filtered_game_info",
            "value": "get_filtered_game_info"
          },
          {
            "selected": false,
            "text": "get_funnel_steps",
            "value": "get_funnel_steps"
          },
          {
            "selected": false,
            "text": "get_game",
            "value": "get_game"
          },
          {
            "selected": false,
            "text": "get_game_config",
            "value": "get_game_config"
          },
          {
            "selected": false,
            "text": "get_game_info_by_data_warehouse_name",
            "value": "get_game_info_by_data_warehouse_name"
          },
          {
            "selected": false,
            "text": "get_game_list",
            "value": "get_game_list"
          },
          {
            "selected": false,
            "text": "get_games",
            "value": "get_games"
          },
          {
            "selected": false,
            "text": "get_grant_list_for_user",
            "value": "get_grant_list_for_user"
          },
          {
            "selected": false,
            "text": "get_id_column",
            "value": "get_id_column"
          },
          {
            "selected": false,
            "text": "get_info_for_user",
            "value": "get_info_for_user"
          },
          {
            "selected": false,
            "text": "get_instances",
            "value": "get_instances"
          },
          {
            "selected": false,
            "text": "get_job_task_relation_entries_by_game",
            "value": "get_job_task_relation_entries_by_game"
          },
          {
            "selected": false,
            "text": "get_jobs_by_game",
            "value": "get_jobs_by_game"
          },
          {
            "selected": false,
            "text": "get_jobs_by_suite",
            "value": "get_jobs_by_suite"
          },
          {
            "selected": false,
            "text": "get_jobs_by_task",
            "value": "get_jobs_by_task"
          },
          {
            "selected": false,
            "text": "get_map_games",
            "value": "get_map_games"
          },
          {
            "selected": false,
            "text": "get_migration_in_progress",
            "value": "get_migration_in_progress"
          },
          {
            "selected": false,
            "text": "get_reference_columns",
            "value": "get_reference_columns"
          },
          {
            "selected": false,
            "text": "get_role_for_user",
            "value": "get_role_for_user"
          },
          {
            "selected": false,
            "text": "get_schema_hash",
            "value": "get_schema_hash"
          },
          {
            "selected": false,
            "text": "get_sdk_version",
            "value": "get_sdk_version"
          },
          {
            "selected": false,
            "text": "get_sql_template",
            "value": "get_sql_template"
          },
          {
            "selected": false,
            "text": "get_suite_job_relation_entries_by_game",
            "value": "get_suite_job_relation_entries_by_game"
          },
          {
            "selected": false,
            "text": "get_suites_by_task",
            "value": "get_suites_by_task"
          },
          {
            "selected": false,
            "text": "get_task_status",
            "value": "get_task_status"
          },
          {
            "selected": false,
            "text": "get_tasks_by_game",
            "value": "get_tasks_by_game"
          },
          {
            "selected": false,
            "text": "get_tasks_by_job",
            "value": "get_tasks_by_job"
          },
          {
            "selected": false,
            "text": "get_tree_by_game",
            "value": "get_tree_by_game"
          },
          {
            "selected": false,
            "text": "get_user_email",
            "value": "get_user_email"
          },
          {
            "selected": false,
            "text": "get_users",
            "value": "get_users"
          },
          {
            "selected": false,
            "text": "get_verify_token",
            "value": "get_verify_token"
          },
          {
            "selected": false,
            "text": "init_blueprint_from_game",
            "value": "init_blueprint_from_game"
          },
          {
            "selected": false,
            "text": "init_game_from_blueprint",
            "value": "init_game_from_blueprint"
          },
          {
            "selected": false,
            "text": "insert",
            "value": "insert"
          },
          {
            "selected": false,
            "text": "insert_config",
            "value": "insert_config"
          },
          {
            "selected": false,
            "text": "insert_event",
            "value": "insert_event"
          },
          {
            "selected": false,
            "text": "insert_fields",
            "value": "insert_fields"
          },
          {
            "selected": false,
            "text": "insert_funnel_step",
            "value": "insert_funnel_step"
          },
          {
            "selected": false,
            "text": "is_multi_auth_enabled",
            "value": "is_multi_auth_enabled"
          },
          {
            "selected": false,
            "text": "log_action",
            "value": "log_action"
          },
          {
            "selected": false,
            "text": "login",
            "value": "login"
          },
          {
            "selected": false,
            "text": "logout",
            "value": "logout"
          },
          {
            "selected": false,
            "text": "lookup",
            "value": "lookup"
          },
          {
            "selected": false,
            "text": "lookup_players",
            "value": "lookup_players"
          },
          {
            "selected": false,
            "text": "merge_result",
            "value": "merge_result"
          },
          {
            "selected": false,
            "text": "method",
            "value": "method"
          },
          {
            "selected": false,
            "text": "publish_config",
            "value": "publish_config"
          },
          {
            "selected": false,
            "text": "reconcile_loader_task_queue",
            "value": "reconcile_loader_task_queue"
          },
          {
            "selected": false,
            "text": "reconcile_schemas",
            "value": "reconcile_schemas"
          },
          {
            "selected": false,
            "text": "reconcile_schemas_for_game",
            "value": "reconcile_schemas_for_game"
          },
          {
            "selected": false,
            "text": "refresh_airflow_dag",
            "value": "refresh_airflow_dag"
          },
          {
            "selected": false,
            "text": "remove_all_loader_tasks_for_game",
            "value": "remove_all_loader_tasks_for_game"
          },
          {
            "selected": false,
            "text": "renew_session_by_token",
            "value": "renew_session_by_token"
          },
          {
            "selected": false,
            "text": "reset",
            "value": "reset"
          },
          {
            "selected": false,
            "text": "reset_blueprint",
            "value": "reset_blueprint"
          },
          {
            "selected": false,
            "text": "run_airflow_dag",
            "value": "run_airflow_dag"
          },
          {
            "selected": false,
            "text": "select_all_configs",
            "value": "select_all_configs"
          },
          {
            "selected": false,
            "text": "select_all_events",
            "value": "select_all_events"
          },
          {
            "selected": false,
            "text": "select_all_fields",
            "value": "select_all_fields"
          },
          {
            "selected": false,
            "text": "select_config_sdk_config",
            "value": "select_config_sdk_config"
          },
          {
            "selected": false,
            "text": "send_verification_code",
            "value": "send_verification_code"
          },
          {
            "selected": false,
            "text": "trigger_airflow_dag",
            "value": "trigger_airflow_dag"
          },
          {
            "selected": false,
            "text": "update",
            "value": "update"
          },
          {
            "selected": false,
            "text": "update_dashboard",
            "value": "update_dashboard"
          },
          {
            "selected": false,
            "text": "update_fields",
            "value": "update_fields"
          },
          {
            "selected": false,
            "text": "update_game_status",
            "value": "update_game_status"
          },
          {
            "selected": false,
            "text": "update_job",
            "value": "update_job"
          },
          {
            "selected": false,
            "text": "update_suite",
            "value": "update_suite"
          },
          {
            "selected": false,
            "text": "update_task",
            "value": "update_task"
          },
          {
            "selected": false,
            "text": "update_user",
            "value": "update_user"
          },
          {
            "selected": false,
            "text": "upload",
            "value": "upload"
          },
          {
            "selected": false,
            "text": "upload_config",
            "value": "upload_config"
          },
          {
            "selected": false,
            "text": "user_exists",
            "value": "user_exists"
          },
          {
            "selected": false,
            "text": "verify",
            "value": "verify"
          },
          {
            "selected": false,
            "text": "verify_blacklist",
            "value": "verify_blacklist"
          },
          {
            "selected": false,
            "text": "verify_player",
            "value": "verify_player"
          }
        ],
        "query": "SHOW TAG VALUES WITH KEY = \"method\" WHERE module =~ /com\\.nexonm\\.map.admin\\.service.($service)_service/",
        "refresh": true,
        "regex": "",
        "type": "query"
      },
      {
        "allFormat": "glob",
        "auto": false,
        "current": {
          "tags": [],
          "text": "10m",
          "value": "10m"
        },
        "datasource": null,
        "includeAll": false,
        "multi": false,
        "multiFormat": "glob",
        "name": "interval",
        "options": [
          {
            "selected": false,
            "text": "1m",
            "value": "1m"
          },
          {
            "selected": true,
            "text": "10m",
            "value": "10m"
          },
          {
            "selected": false,
            "text": "30m",
            "value": "30m"
          },
          {
            "selected": false,
            "text": "1h",
            "value": "1h"
          }
        ],
        "query": "1m,10m,30m,1h",
        "refresh": false,
        "type": "interval"
      }
    ]
  },
  "time": {
    "from": "now-24h",
    "to": "now"
  },
  "timepicker": {
    "now": true,
    "refresh_intervals": [
      "5s",
      "10s",
      "30s",
      "1m",
      "5m",
      "15m",
      "30m",
      "1h",
      "2h",
      "1d"
    ],
    "time_options": [
      "5m",
      "15m",
      "1h",
      "6h",
      "12h",
      "24h",
      "2d",
      "7d",
      "30d"
    ]
  },
  "timezone": "browser",
  "title": "Map Console API"
}