{
  "annotations": {
    "list": []
  },
  "editable": true,
  "hideControls": false,
  "links": [],
  "originalTitle": "Real-Time Installs",
  "refresh": "1m",
  "rows": [
    {
      "collapse": false,
      "editable": true,
      "height": "250px",
      "panels": [
        {
          "aliasColors": {},
          "bars": true,
          "datasource": "ETL",
          "editable": true,
          "error": false,
          "fill": 1,
          "grid": {
            "leftLogBase": 1,
            "leftMax": null,
            "leftMin": null,
            "rightLogBase": 1,
            "rightMax": null,
            "rightMin": null,
            "threshold1": null,
            "threshold1Color": "rgba(216, 200, 27, 0.27)",
            "threshold2": null,
            "threshold2Color": "rgba(234, 112, 112, 0.22)"
          },
          "id": 1,
          "isNew": true,
          "legend": {
            "alignAsTable": true,
            "avg": false,
            "current": false,
            "max": false,
            "min": false,
            "show": true,
            "total": true,
            "values": true
          },
          "lines": false,
          "linewidth": 1,
          "links": [],
          "nullPointMode": "connected",
          "percentage": false,
          "pointradius": 1,
          "points": false,
          "renderer": "flot",
          "seriesOverrides": [],
          "span": 12,
          "stack": false,
          "steppedLine": false,
          "targets": [
            {
              "alias": "$tag_dimension",
              "dsType": "influxdb",
              "groupBy": [
                {
                  "params": [
                    "10m"
                  ],
                  "type": "time"
                },
                {
                  "params": [
                    "dimension"
                  ],
                  "type": "tag"
                },
                {
                  "params": [
                    "null"
                  ],
                  "type": "fill"
                }
              ],
              "hide": false,
              "measurement": "dimension_flush_bot",
              "query": "SELECT sum(\"rows\") FROM \"dimension_flush_bot\" WHERE (\"dimension\" = 'install_device_ff' OR \"dimension\" = 'install_user_ff') AND \"game\" <> 'toy' AND $timeFilter GROUP BY time(10m), \"dimension\" fill(null)",
              "rawQuery": true,
              "refId": "A",
              "resultFormat": "time_series",
              "select": [
                [
                  {
                    "params": [
                      "rows"
                    ],
                    "type": "field"
                  },
                  {
                    "params": [],
                    "type": "sum"
                  }
                ]
              ],
              "tags": [
                {
                  "key": "dimension",
                  "operator": "=",
                  "value": "install_device_ff"
                },
                {
                  "condition": "OR",
                  "key": "dimension",
                  "operator": "=",
                  "value": "install_user_ff"
                },
                {
                  "condition": "AND",
                  "key": "game",
                  "operator": "<>",
                  "value": "toy"
                }
              ]
            }
          ],
          "timeFrom": null,
          "timeShift": null,
          "title": "MAP 2.0 (excluding TOY)",
          "tooltip": {
            "shared": true,
            "value_type": "cumulative"
          },
          "type": "graph",
          "x-axis": true,
          "y-axis": true,
          "y_formats": [
            "short",
            "short"
          ]
        },
        {
          "aliasColors": {},
          "bars": true,
          "datasource": "ETL",
          "editable": true,
          "error": false,
          "fill": 1,
          "grid": {
            "leftLogBase": 1,
            "leftMax": null,
            "leftMin": null,
            "rightLogBase": 1,
            "rightMax": null,
            "rightMin": null,
            "threshold1": null,
            "threshold1Color": "rgba(216, 200, 27, 0.27)",
            "threshold2": null,
            "threshold2Color": "rgba(234, 112, 112, 0.22)"
          },
          "id": 3,
          "isNew": true,
          "legend": {
            "alignAsTable": true,
            "avg": false,
            "current": false,
            "max": false,
            "min": false,
            "show": true,
            "total": true,
            "values": true
          },
          "lines": false,
          "linewidth": 1,
          "links": [],
          "nullPointMode": "connected",
          "percentage": false,
          "pointradius": 1,
          "points": false,
          "renderer": "flot",
          "seriesOverrides": [],
          "span": 12,
          "stack": false,
          "steppedLine": false,
          "targets": [
            {
              "alias": "$tag_dimension",
              "dsType": "influxdb",
              "groupBy": [
                {
                  "params": [
                    "10m"
                  ],
                  "type": "time"
                },
                {
                  "params": [
                    "dimension"
                  ],
                  "type": "tag"
                },
                {
                  "params": [
                    "null"
                  ],
                  "type": "fill"
                }
              ],
              "hide": false,
              "measurement": "dimension_flush_bot",
              "query": "SELECT sum(\"rows\") FROM \"dimension_flush_bot\" WHERE (\"dimension\" = 'install_device_ff' OR \"dimension\" = 'install_user_ff') AND \"game\" = 'oz' AND $timeFilter GROUP BY time(10m), \"dimension\" fill(null)",
              "rawQuery": true,
              "refId": "A",
              "resultFormat": "time_series",
              "select": [
                [
                  {
                    "params": [
                      "rows"
                    ],
                    "type": "field"
                  },
                  {
                    "params": [],
                    "type": "sum"
                  }
                ]
              ],
              "tags": [
                {
                  "key": "dimension",
                  "operator": "=",
                  "value": "install_device_ff"
                },
                {
                  "condition": "OR",
                  "key": "dimension",
                  "operator": "=",
                  "value": "install_user_ff"
                },
                {
                  "condition": "AND",
                  "key": "game",
                  "operator": "=",
                  "value": "oz"
                }
              ]
            }
          ],
          "timeFrom": null,
          "timeShift": null,
          "title": "Oz",
          "tooltip": {
            "shared": true,
            "value_type": "cumulative"
          },
          "type": "graph",
          "x-axis": true,
          "y-axis": true,
          "y_formats": [
            "short",
            "short"
          ]
        },
        {
          "aliasColors": {},
          "bars": true,
          "datasource": "ETL",
          "editable": true,
          "error": false,
          "fill": 1,
          "grid": {
            "leftLogBase": 1,
            "leftMax": null,
            "leftMin": null,
            "rightLogBase": 1,
            "rightMax": null,
            "rightMin": null,
            "threshold1": null,
            "threshold1Color": "rgba(216, 200, 27, 0.27)",
            "threshold2": null,
            "threshold2Color": "rgba(234, 112, 112, 0.22)"
          },
          "id": 4,
          "isNew": true,
          "legend": {
            "alignAsTable": true,
            "avg": false,
            "current": false,
            "max": false,
            "min": false,
            "rightSide": false,
            "show": true,
            "total": true,
            "values": true
          },
          "lines": false,
          "linewidth": 1,
          "links": [],
          "nullPointMode": "connected",
          "percentage": false,
          "pointradius": 1,
          "points": false,
          "renderer": "flot",
          "seriesOverrides": [],
          "span": 12,
          "stack": false,
          "steppedLine": false,
          "targets": [
            {
              "alias": "$tag_dimension",
              "dsType": "influxdb",
              "groupBy": [
                {
                  "params": [
                    "10m"
                  ],
                  "type": "time"
                },
                {
                  "params": [
                    "dimension"
                  ],
                  "type": "tag"
                },
                {
                  "params": [
                    "null"
                  ],
                  "type": "fill"
                }
              ],
              "hide": false,
              "measurement": "dimension_flush_bot",
              "query": "SELECT sum(\"rows\") FROM \"dimension_flush_bot\" WHERE (\"dimension\" = 'install_device_ff' OR \"dimension\" = 'install_user_ff') AND \"game_name\" = 'dominations' AND $timeFilter GROUP BY time(10m), \"dimension\" fill(null)",
              "rawQuery": true,
              "refId": "A",
              "resultFormat": "time_series",
              "select": [
                [
                  {
                    "params": [
                      "rows"
                    ],
                    "type": "field"
                  },
                  {
                    "params": [],
                    "type": "sum"
                  }
                ]
              ],
              "tags": [
                {
                  "key": "dimension",
                  "operator": "=",
                  "value": "install_device_ff"
                },
                {
                  "condition": "OR",
                  "key": "dimension",
                  "operator": "=",
                  "value": "install_user_ff"
                },
                {
                  "condition": "AND",
                  "key": "game",
                  "operator": "=",
                  "value": "oz"
                }
              ]
            }
          ],
          "timeFrom": null,
          "timeShift": null,
          "title": "DomiNations",
          "tooltip": {
            "shared": true,
            "value_type": "cumulative"
          },
          "type": "graph",
          "x-axis": true,
          "y-axis": true,
          "y_formats": [
            "short",
            "short"
          ]
        },
        {
          "aliasColors": {},
          "bars": true,
          "datasource": "ETL",
          "editable": true,
          "error": false,
          "fill": 1,
          "grid": {
            "leftLogBase": 1,
            "leftMax": null,
            "leftMin": null,
            "rightLogBase": 1,
            "rightMax": null,
            "rightMin": null,
            "threshold1": null,
            "threshold1Color": "rgba(216, 200, 27, 0.27)",
            "threshold2": null,
            "threshold2Color": "rgba(234, 112, 112, 0.22)"
          },
          "id": 5,
          "isNew": true,
          "legend": {
            "alignAsTable": true,
            "avg": false,
            "current": false,
            "max": false,
            "min": false,
            "show": true,
            "total": true,
            "values": true
          },
          "lines": false,
          "linewidth": 1,
          "links": [],
          "nullPointMode": "connected",
          "percentage": false,
          "pointradius": 1,
          "points": false,
          "renderer": "flot",
          "seriesOverrides": [],
          "span": 12,
          "stack": false,
          "steppedLine": false,
          "targets": [
            {
              "alias": "$tag_dimension",
              "dsType": "influxdb",
              "groupBy": [
                {
                  "params": [
                    "10m"
                  ],
                  "type": "time"
                },
                {
                  "params": [
                    "dimension"
                  ],
                  "type": "tag"
                },
                {
                  "params": [
                    "null"
                  ],
                  "type": "fill"
                }
              ],
              "hide": false,
              "measurement": "dimension_flush_bot",
              "query": "SELECT sum(\"rows\") FROM \"dimension_flush_bot\" WHERE (\"dimension\" = 'install_device_ff' OR \"dimension\" = 'install_user_ff') AND \"game\" = 'woh' AND $timeFilter GROUP BY time(10m), \"dimension\" fill(null)",
              "rawQuery": true,
              "refId": "A",
              "resultFormat": "time_series",
              "select": [
                [
                  {
                    "params": [
                      "rows"
                    ],
                    "type": "field"
                  },
                  {
                    "params": [],
                    "type": "sum"
                  }
                ]
              ],
              "tags": [
                {
                  "key": "dimension",
                  "operator": "=",
                  "value": "install_device_ff"
                },
                {
                  "condition": "OR",
                  "key": "dimension",
                  "operator": "=",
                  "value": "install_user_ff"
                },
                {
                  "condition": "AND",
                  "key": "game",
                  "operator": "=",
                  "value": "oz"
                }
              ]
            }
          ],
          "timeFrom": null,
          "timeShift": null,
          "title": "Winions/WOH",
          "tooltip": {
            "shared": true,
            "value_type": "cumulative"
          },
          "type": "graph",
          "x-axis": true,
          "y-axis": true,
          "y_formats": [
            "short",
            "short"
          ]
        },
        {
          "aliasColors": {},
          "bars": true,
          "datasource": "ETL",
          "editable": true,
          "error": false,
          "fill": 1,
          "grid": {
            "leftLogBase": 1,
            "leftMax": null,
            "leftMin": null,
            "rightLogBase": 1,
            "rightMax": null,
            "rightMin": null,
            "threshold1": null,
            "threshold1Color": "rgba(216, 200, 27, 0.27)",
            "threshold2": null,
            "threshold2Color": "rgba(234, 112, 112, 0.22)"
          },
          "id": 6,
          "isNew": true,
          "legend": {
            "alignAsTable": true,
            "avg": false,
            "current": false,
            "max": false,
            "min": false,
            "show": true,
            "total": true,
            "values": true
          },
          "lines": false,
          "linewidth": 1,
          "links": [],
          "nullPointMode": "connected",
          "percentage": false,
          "pointradius": 1,
          "points": false,
          "renderer": "flot",
          "seriesOverrides": [],
          "span": 12,
          "stack": false,
          "steppedLine": false,
          "targets": [
            {
              "alias": "$tag_dimension",
              "dsType": "influxdb",
              "groupBy": [
                {
                  "params": [
                    "10m"
                  ],
                  "type": "time"
                },
                {
                  "params": [
                    "dimension"
                  ],
                  "type": "tag"
                },
                {
                  "params": [
                    "null"
                  ],
                  "type": "fill"
                }
              ],
              "hide": false,
              "measurement": "dimension_flush_bot",
              "query": "SELECT sum(\"rows\") FROM \"dimension_flush_bot\" WHERE (\"dimension\" = 'install_device_ff' OR \"dimension\" = 'install_user_ff') AND \"game\" = 'lqt' AND $timeFilter GROUP BY time(10m), \"dimension\" fill(null)",
              "rawQuery": true,
              "refId": "A",
              "resultFormat": "time_series",
              "select": [
                [
                  {
                    "params": [
                      "rows"
                    ],
                    "type": "field"
                  },
                  {
                    "params": [],
                    "type": "sum"
                  }
                ]
              ],
              "tags": [
                {
                  "key": "dimension",
                  "operator": "=",
                  "value": "install_device_ff"
                },
                {
                  "condition": "OR",
                  "key": "dimension",
                  "operator": "=",
                  "value": "install_user_ff"
                },
                {
                  "condition": "AND",
                  "key": "game",
                  "operator": "=",
                  "value": "oz"
                }
              ]
            }
          ],
          "timeFrom": null,
          "timeShift": null,
          "title": "LQT",
          "tooltip": {
            "shared": true,
            "value_type": "cumulative"
          },
          "type": "graph",
          "x-axis": true,
          "y-axis": true,
          "y_formats": [
            "short",
            "short"
          ]
        },
        {
          "aliasColors": {},
          "bars": true,
          "datasource": "ETL",
          "editable": true,
          "error": false,
          "fill": 1,
          "grid": {
            "leftLogBase": 1,
            "leftMax": null,
            "leftMin": null,
            "rightLogBase": 1,
            "rightMax": null,
            "rightMin": null,
            "threshold1": null,
            "threshold1Color": "rgba(216, 200, 27, 0.27)",
            "threshold2": null,
            "threshold2Color": "rgba(234, 112, 112, 0.22)"
          },
          "id": 7,
          "isNew": true,
          "legend": {
            "alignAsTable": true,
            "avg": false,
            "current": false,
            "max": false,
            "min": false,
            "show": true,
            "total": true,
            "values": true
          },
          "lines": false,
          "linewidth": 1,
          "links": [],
          "nullPointMode": "connected",
          "percentage": false,
          "pointradius": 1,
          "points": false,
          "renderer": "flot",
          "seriesOverrides": [],
          "span": 12,
          "stack": false,
          "steppedLine": false,
          "targets": [
            {
              "alias": "$tag_dimension",
              "dsType": "influxdb",
              "groupBy": [
                {
                  "params": [
                    "10m"
                  ],
                  "type": "time"
                },
                {
                  "params": [
                    "dimension"
                  ],
                  "type": "tag"
                },
                {
                  "params": [
                    "null"
                  ],
                  "type": "fill"
                }
              ],
              "hide": false,
              "measurement": "dimension_flush_bot",
              "query": "SELECT sum(\"rows\") FROM \"dimension_flush_bot\" WHERE (\"dimension\" = 'install_device_ff' OR \"dimension\" = 'install_user_ff') AND \"game\" = 'soc' AND $timeFilter GROUP BY time(10m), \"dimension\" fill(null)",
              "rawQuery": true,
              "refId": "A",
              "resultFormat": "time_series",
              "select": [
                [
                  {
                    "params": [
                      "rows"
                    ],
                    "type": "field"
                  },
                  {
                    "params": [],
                    "type": "sum"
                  }
                ]
              ],
              "tags": [
                {
                  "key": "dimension",
                  "operator": "=",
                  "value": "install_device_ff"
                },
                {
                  "condition": "OR",
                  "key": "dimension",
                  "operator": "=",
                  "value": "install_user_ff"
                },
                {
                  "condition": "AND",
                  "key": "game",
                  "operator": "=",
                  "value": "oz"
                }
              ]
            }
          ],
          "timeFrom": null,
          "timeShift": null,
          "title": "SOC",
          "tooltip": {
            "shared": true,
            "value_type": "cumulative"
          },
          "type": "graph",
          "x-axis": true,
          "y-axis": true,
          "y_formats": [
            "short",
            "short"
          ]
        },
        {
          "aliasColors": {},
          "bars": true,
          "datasource": "ETL",
          "editable": true,
          "error": false,
          "fill": 1,
          "grid": {
            "leftLogBase": 1,
            "leftMax": null,
            "leftMin": null,
            "rightLogBase": 1,
            "rightMax": null,
            "rightMin": null,
            "threshold1": null,
            "threshold1Color": "rgba(216, 200, 27, 0.27)",
            "threshold2": null,
            "threshold2Color": "rgba(234, 112, 112, 0.22)"
          },
          "id": 8,
          "isNew": true,
          "legend": {
            "alignAsTable": true,
            "avg": false,
            "current": false,
            "max": false,
            "min": false,
            "show": true,
            "total": true,
            "values": true
          },
          "lines": false,
          "linewidth": 1,
          "links": [],
          "nullPointMode": "connected",
          "percentage": false,
          "pointradius": 1,
          "points": false,
          "renderer": "flot",
          "seriesOverrides": [],
          "span": 12,
          "stack": false,
          "steppedLine": false,
          "targets": [
            {
              "alias": "$tag_dimension",
              "dsType": "influxdb",
              "groupBy": [
                {
                  "params": [
                    "10m"
                  ],
                  "type": "time"
                },
                {
                  "params": [
                    "dimension"
                  ],
                  "type": "tag"
                },
                {
                  "params": [
                    "null"
                  ],
                  "type": "fill"
                }
              ],
              "hide": false,
              "measurement": "dimension_flush_bot",
              "query": "SELECT sum(\"rows\") FROM \"dimension_flush_bot\" WHERE (\"dimension\" = 'install_device_ff' OR \"dimension\" = 'install_user_ff') AND \"game\" = 'toy' AND $timeFilter GROUP BY time(10m), \"dimension\" fill(null)",
              "rawQuery": true,
              "refId": "A",
              "resultFormat": "time_series",
              "select": [
                [
                  {
                    "params": [
                      "rows"
                    ],
                    "type": "field"
                  },
                  {
                    "params": [],
                    "type": "sum"
                  }
                ]
              ],
              "tags": [
                {
                  "key": "dimension",
                  "operator": "=",
                  "value": "install_device_ff"
                },
                {
                  "condition": "OR",
                  "key": "dimension",
                  "operator": "=",
                  "value": "install_user_ff"
                },
                {
                  "condition": "AND",
                  "key": "game",
                  "operator": "=",
                  "value": "oz"
                }
              ]
            }
          ],
          "timeFrom": null,
          "timeShift": null,
          "title": "TOY",
          "tooltip": {
            "shared": true,
            "value_type": "cumulative"
          },
          "type": "graph",
          "x-axis": true,
          "y-axis": true,
          "y_formats": [
            "short",
            "short"
          ]
        }
      ],
      "title": "Row"
    },
    {
      "collapse": false,
      "editable": true,
      "height": "250px",
      "panels": [],
      "title": "New row"
    }
  ],
  "schemaVersion": 8,
  "sharedCrosshair": false,
  "style": "dark",
  "tags": [],
  "templating": {
    "list": []
  },
  "time": {
    "from": "now-60d",
    "to": "now"
  },
  "timepicker": {
    "now": true,
    "refresh_intervals": [
      "5s",
      "10s",
      "30s",
      "1m",
      "5m",
      "15m",
      "30m",
      "1h",
      "2h",
      "1d"
    ],
    "time_options": [
      "5m",
      "15m",
      "1h",
      "6h",
      "12h",
      "24h",
      "2d",
      "7d",
      "30d"
    ]
  },
  "timezone": "browser",
  "title": "Real-Time Installs"
}